{
  "nodes": [{
      "id": "Camp5",
      "label": "Camping 5",
      "x": 51.5,
      "y": 298,
      "size": 3
    },
    {
      "id": "Rstop4",
      "label": "Ranger Stop 4",
      "x": 47.5,
      "y": 234.5,
      "size": 3
    },
    {
      "id": "GenG7",
      "label": "General Gate 7",
      "x": 163,
      "y": 354,
      "size": 3
    },
    {
      "id": "GenG6",
      "label": "General Gate 6",
      "x": 334,
      "y": 337,
      "size": 3
    },
    {
      "id": "Rstop7",
      "label": "Ranger Stop 7",
      "x": 246.5,
      "y": 372.5,
      "size": 3
    },
    {
      "id": "Gate7",
      "label": "Gate 7",
      "x": 240.5,
      "y": 393,
      "size": 3
    },
    {
      "id": "Ent3",
      "label": "Entrance 3",
      "x": 283,
      "y": 409.5,
      "size": 3
    },
    {
      "id": "Gate6",
      "label": "Gate 6",
      "x": 285,
      "y": 371,
      "size": 3
    },
    {
      "id": "Rstop6",
      "label": "Ranger Stop 6",
      "x": 303,
      "y": 360.5,
      "size": 3
    },
    {
      "id": "Gate5",
      "label": "Gate 5",
      "x": 323,
      "y": 358.5,
      "size": 3
    },
    {
      "id": "Rbase",
      "label": "Ranger Base",
      "x": 315,
      "y": 430,
      "size": 3
    },
    {
      "id": "Gate8",
      "label": "Gate8",
      "x": 339,
      "y": 444,
      "size": 3
    },
    {
      "id": "Ent4",
      "label": "Entrance 4",
      "x": 345,
      "y": 452,
      "size": 3
    },
    {
      "id": "Camp6",
      "label": "Camping 6",
      "x": 367.5,
      "y": 432.5,
      "size": 3
    },
    {
      "id": "Camp7",
      "label": "Camping 7",
      "x": 443.5,
      "y": 355.5,
      "size": 3
    },
    {
      "id": "Rstop5",
      "label": "Ranger Stop 5",
      "x": 370,
      "y": 291.5,
      "size": 3
    },
    {
      "id": "Gate4",
      "label": "Gate 4",
      "x": 402,
      "y": 281.5,
      "size": 3
    },
    {
      "id": "GenG5",
      "label": "General Gate 5",
      "x": 305,
      "y": 275,
      "size": 3
    },
    {
      "id": "GenG4",
      "label": "General Gate 4",
      "x": 170,
      "y": 241.5,
      "size": 3
    },
    {
      "id": "Camp4",
      "label": "Camping 4",
      "x": 120.5,
      "y": 219,
      "size": 3
    },
    {
      "id": "Ent2",
      "label": "Entrance 2",
      "x": 449,
      "y": 215.5,
      "size": 3
    },
    {
      "id": "Ent1",
      "label": "Entrance 1",
      "x": 44,
      "y": 166,
      "size": 3
    },
    {
      "id": "Ent0",
      "label": "Entrance 0",
      "x": 154,
      "y": 35,
      "size": 3
    },
    {
      "id": "Camp2",
      "label": "Camping 2",
      "x": 109.5,
      "y": 159.5,
      "size": 3
    },
    {
      "id": "Camp3",
      "label": "Camping 3",
      "x": 112.5,
      "y": 168.5,
      "size": 3
    },
    {
      "id": "Camp8",
      "label": "Camping 8",
      "x": 448.5,
      "y": 120,
      "size": 3
    },
    {
      "id": "Camp1",
      "label": "Camping 1",
      "x": 316,
      "y": 125.5,
      "size": 3
    },
    {
      "id": "Camp0",
      "label": "Camping 0",
      "x": 128.5,
      "y": 102.5,
      "size": 3
    },
    {
      "id": "Gate3",
      "label": "Gate 3",
      "x": 364.5,
      "y": 149.5,
      "size": 3
    },
    {
      "id": "GenG3",
      "label": "General Gate 3",
      "x": 456,
      "y": 137,
      "size": 3
    },
    {
      "id": "Rstop3",
      "label": "Ranger Stop 3",
      "x": 363,
      "y": 113.5,
      "size": 3
    },
    {
      "id": "Gate1",
      "label": "Gate 1",
      "x": 244.5,
      "y": 108.5,
      "size": 3
    },
    {
      "id": "Gate2",
      "label": "Gate 2",
      "x": 162,
      "y": 234.5,
      "size": 3
    },
    {
      "id": "Rstop1",
      "label": "Ranger Stop 1",
      "x": 48.5,
      "y": 62.5,
      "size": 3
    },
    {
      "id": "Gate0",
      "label": "Gate 0",
      "x": 155,
      "y": 84.5,
      "size": 3
    },
    {
      "id": "Rstop2",
      "label": "Ranger Stop 2",
      "x": 198,
      "y": 88.2,
      "size": 3
    },
    {
      "id": "GenG2",
      "label": "General Gate 2",
      "x": 255.5,
      "y": 81.5,
      "size": 3
    },
    {
      "id": "GenG1",
      "label": "General Gate 1",
      "x": 158.5,
      "y": 64,
      "size": 3
    },
    {
      "id": "GenG0",
      "label": "General Gate 0",
      "x": 272,
      "y": 24,
      "size": 3
    },
    {
      "id": "Rstop0",
      "label": "Ranger Stop 0",
      "x": 220,
      "y": 41.5,
      "size": 3
    }
  ],
  "edges": [{
      "id": "e1",
      "source": "GenG0",
      "target": "GenG5"

    },
    {
      "id": "e2",
      "source": "GenG0",
      "target": "Ent2"

    },
    {
      "id": "e3",
      "source": "GenG0",
      "target": "Gate5"

    },
    {
      "id": "e4",
      "source": "GenG0",
      "target": "Ent4"

    },
    {
      "id": "e5",
      "source": "GenG0",
      "target": "Gate8"

    },
    {
      "id": "e6",
      "source": "GenG0",
      "target": "Camp8"

    },
    {
      "id": "e7",
      "source": "GenG0",
      "target": "GenG6"

    },
    {
      "id": "e8",
      "source": "GenG0",
      "target": "Gate4"

    },
    {
      "id": "e9",
      "source": "GenG0",
      "target": "GenG3"

    },
    {
      "id": "e10",
      "source": "GenG0",
      "target": "Camp2"

    },
    {
      "id": "e11",
      "source": "GenG0",
      "target": "GenG2"

    },
    {
      "id": "e12",
      "source": "GenG0",
      "target": "Gate3"

    },
    {
      "id": "e13",
      "source": "GenG0",
      "target": "Camp1"

    },
    {
      "id": "e14",
      "source": "GenG0",
      "target": "GenG0"

    },
    {
      "id": "e15",
      "source": "Ent0",
      "target": "GenG1"

    },
    {
      "id": "e16",
      "source": "Ent0",
      "target": "Gate0"

    },
    {
      "id": "e17",
      "source": "Ent0",
      "target": "Gate6"

    },
    {
      "id": "e18",
      "source": "Ent0",
      "target": "Ent3"

    },
    {
      "id": "e19",
      "source": "Ent0",
      "target": "GenG4"

    },
    {
      "id": "e20",
      "source": "Ent0",
      "target": "Gate7"

    },
    {
      "id": "e21",
      "source": "Ent0",
      "target": "GenG7"

    },
    {
      "id": "e22",
      "source": "Rstop0",
      "target": "GenG2"

    },
    {
      "id": "e23",
      "source": "Rstop0",
      "target": "Rstop2"

    },
    {
      "id": "e24",
      "source": "Rstop1",
      "target": "Gate2"

    },
    {
      "id": "e25",
      "source": "GenG1",
      "target": "Rstop2"

    },
    {
      "id": "e26",
      "source": "GenG1",
      "target": "Gate0"

    },
    {
      "id": "e27",
      "source": "GenG1",
      "target": "Gate6"

    },
    {
      "id": "e28",
      "source": "GenG1",
      "target": "Ent3"

    },
    {
      "id": "e29",
      "source": "GenG1",
      "target": "GenG4"

    },
    {
      "id": "e30",
      "source": "GenG1",
      "target": "Gate7"

    },
    {
      "id": "e",
      "source": "GenG1",
      "target": "GenG7"

    },
    {
      "id": "e",
      "source": "GenG1",
      "target": "Ent0"

    },
    {
      "id": "e",
      "source": "GenG2",
      "target": "GenG0"

    },
    {
      "id": "e",
      "source": "GenG2",
      "target": "GenG5"

    },
    {
      "id": "e",
      "source": "GenG2",
      "target": "Ent2"

    },
    {
      "id": "e",
      "source": "GenG2",
      "target": "Gate5"

    },
    {
      "id": "e",
      "source": "GenG2",
      "target": "Ent4"

    },
    {
      "id": "e",
      "source": "GenG2",
      "target": "Gate8"

    },
    {
      "id": "e",
      "source": "GenG2",
      "target": "Camp8"

    },
    {
      "id": "e",
      "source": "GenG2",
      "target": "GenG6"

    },
    {
      "id": "e",
      "source": "GenG2",
      "target": "Gate4"

    },
    {
      "id": "e",
      "source": "GenG2",
      "target": "GenG3"

    },
    {
      "id": "e",
      "source": "GenG2",
      "target": "Camp2"

    },
    {
      "id": "e",
      "source": "GenG2",
      "target": "GenG2"

    },
    {
      "id": "e",
      "source": "GenG2",
      "target": "Gate3"

    },
    {
      "id": "e",
      "source": "GenG2",
      "target": "Camp1"

    },
    {
      "id": "e",
      "source": "GenG2",
      "target": "Rstop0"

    },
    {
      "id": "e",
      "source": "Gate0",
      "target": "Gate1"

    },
    {
      "id": "e",
      "source": "Gate0",
      "target": "GenG1"

    },
    {
      "id": "e",
      "source": "Gate0",
      "target": "Ent0"

    },
    {
      "id": "e",
      "source": "Gate0",
      "target": "Gate6"

    },
    {
      "id": "e",
      "source": "Gate0",
      "target": "Ent3"

    },
    {
      "id": "e",
      "source": "Gate0",
      "target": "GenG4"

    },
    {
      "id": "e",
      "source": "Gate0",
      "target": "Gate7"

    },
    {
      "id": "e",
      "source": "Gate0",
      "target": "GenG7"

    },
    {
      "id": "e",
      "source": "Rstop2",
      "target": "Rstop0"

    },
    {
      "id": "e",
      "source": "Rstop2",
      "target": "GenG1"

    },
    {
      "id": "e",
      "source": "Camp0",
      "target": "Camp0"

    },
    {
      "id": "e",
      "source": "Camp0",
      "target": "Gate1"

    },
    {
      "id": "e",
      "source": "Camp0",
      "target": "GenG7"

    },
    {
      "id": "e",
      "source": "Camp0",
      "target": "Gate2"

    },
    {
      "id": "e",
      "source": "Camp0",
      "target": "Camp3"

    },
    {
      "id": "e",
      "source": "Camp0",
      "target": "Ent1"

    },
    {
      "id": "e",
      "source": "Camp0",
      "target": "Camp5"

    },
    {
      "id": "e",
      "source": "Camp0",
      "target": "Camp4"

    },
    {
      "id": "e",
      "source": "Gate1",
      "target": "Gate0"

    },
    {
      "id": "e",
      "source": "Gate1",
      "target": "GenG7"

    },
    {
      "id": "e",
      "source": "Gate1",
      "target": "Gate2"

    },
    {
      "id": "e",
      "source": "Gate1",
      "target": "Camp3"

    },
    {
      "id": "e",
      "source": "Gate1",
      "target": "Ent1"

    },
    {
      "id": "e",
      "source": "Gate1",
      "target": "Camp5"

    },
    {
      "id": "e",
      "source": "Gate1",
      "target": "Camp4"

    },
    {
      "id": "e",
      "source": "Gate1",
      "target": "Camp0"

    },
    {
      "id": "e",
      "source": "Rstop3",
      "target": "Gate3"

    },
    {
      "id": "e",
      "source": "Camp1",
      "target": "GenG3"

    },
    {
      "id": "e",
      "source": "Camp1",
      "target": "GenG5"

    },
    {
      "id": "e",
      "source": "Camp1",
      "target": "Ent2"

    },
    {
      "id": "e",
      "source": "Camp1",
      "target": "Gate5"

    },
    {
      "id": "e",
      "source": "Camp1",
      "target": "Ent4"

    },
    {
      "id": "e",
      "source": "Camp1",
      "target": "Gate8"

    },
    {
      "id": "e",
      "source": "Camp1",
      "target": "Camp8"

    },
    {
      "id": "e",
      "source": "Camp1",
      "target": "GenG6"

    },
    {
      "id": "e",
      "source": "Camp1",
      "target": "Gate4"

    },
    {
      "id": "e",
      "source": "Camp1",
      "target": "GenG0"

    },
    {
      "id": "e",
      "source": "Camp1",
      "target": "Camp2"

    },
    {
      "id": "e",
      "source": "Camp1",
      "target": "GenG2"

    },
    {
      "id": "e",
      "source": "Camp1",
      "target": "Gate3"

    },
    {
      "id": "e",
      "source": "Camp1",
      "target": "Camp1"

    },
    {
      "id": "e",
      "source": "Camp2",
      "target": "GenG5"

    },
    {
      "id": "e",
      "source": "Camp2",
      "target": "Ent2"

    },
    {
      "id": "e",
      "source": "Camp2",
      "target": "Gate5"

    },
    {
      "id": "e",
      "source": "Camp2",
      "target": "Ent4"

    },
    {
      "id": "e",
      "source": "Camp2",
      "target": "Gate8"

    },
    {
      "id": "e",
      "source": "Camp2",
      "target": "Camp8"

    },
    {
      "id": "e",
      "source": "Camp2",
      "target": "GenG6"

    },
    {
      "id": "e",
      "source": "Camp2",
      "target": "Gate4"

    },
    {
      "id": "e",
      "source": "Camp2",
      "target": "GenG3"

    },
    {
      "id": "e",
      "source": "Camp2",
      "target": "Camp2"

    },
    {
      "id": "e",
      "source": "Camp2",
      "target": "Gate3"

    },
    {
      "id": "e",
      "source": "Camp2",
      "target": "GenG0"

    },
    {
      "id": "e",
      "source": "Camp2",
      "target": "GenG2"

    },
    {
      "id": "e",
      "source": "Camp2",
      "target": "Camp1"

    },
    {
      "id": "e",
      "source": "Gate2",
      "target": "GenG7"

    },
    {
      "id": "e",
      "source": "Gate2",
      "target": "Camp5"

    },
    {
      "id": "e",
      "source": "Gate2",
      "target": "Gate1"

    },
    {
      "id": "e",
      "source": "Gate2",
      "target": "Camp0"

    },
    {
      "id": "e",
      "source": "Gate2",
      "target": "Camp4"

    },
    {
      "id": "e",
      "source": "Gate2",
      "target": "Ent1"

    },
    {
      "id": "e",
      "source": "Gate2",
      "target": "Camp3"

    },
    {
      "id": "e",
      "source": "Gate2",
      "target": "Rstop1"

    },
    {
      "id": "e",
      "source": "GenG3",
      "target": "Camp1"

    },
    {
      "id": "e",
      "source": "GenG3",
      "target": "Ent2"

    },
    {
      "id": "e",
      "source": "GenG3",
      "target": "Gate5"

    },
    {
      "id": "e",
      "source": "GenG3",
      "target": "Ent4"

    },
    {
      "id": "e",
      "source": "GenG3",
      "target": "Gate8"

    },
    {
      "id": "e",
      "source": "GenG3",
      "target": "Camp8"

    },
    {
      "id": "e",
      "source": "GenG3",
      "target": "GenG6"

    },
    {
      "id": "e",
      "source": "GenG3",
      "target": "GenG5"

    },
    {
      "id": "e",
      "source": "GenG3",
      "target": "Gate4"

    },
    {
      "id": "e",
      "source": "GenG3",
      "target": "GenG3"

    },
    {
      "id": "e",
      "source": "GenG3",
      "target": "Camp2"

    },
    {
      "id": "e",
      "source": "GenG3",
      "target": "Gate3"

    },
    {
      "id": "e",
      "source": "GenG3",
      "target": "GenG0"

    },
    {
      "id": "e",
      "source": "GenG3",
      "target": "GenG2"

    },
    {
      "id": "e",
      "source": "Gate3",
      "target": "GenG5"

    },
    {
      "id": "e",
      "source": "Gate3",
      "target": "Ent2"

    },
    {
      "id": "e",
      "source": "Gate3",
      "target": "Gate5"

    },
    {
      "id": "e",
      "source": "Gate3",
      "target": "Ent4"

    },
    {
      "id": "e",
      "source": "Gate3",
      "target": "Gate8"

    },
    {
      "id": "e",
      "source": "Gate3",
      "target": "Camp8"

    },
    {
      "id": "e",
      "source": "Gate3",
      "target": "GenG6"

    },
    {
      "id": "e",
      "source": "Gate3",
      "target": "Gate4"

    },
    {
      "id": "e",
      "source": "Gate3",
      "target": "GenG3"

    },
    {
      "id": "e",
      "source": "Gate3",
      "target": "Camp2"

    },
    {
      "id": "e",
      "source": "Gate3",
      "target": "Gate3"

    },
    {
      "id": "e",
      "source": "Gate3",
      "target": "GenG0"

    },
    {
      "id": "e",
      "source": "Gate3",
      "target": "GenG2"

    },
    {
      "id": "e",
      "source": "Gate3",
      "target": "Camp1"

    },
    {
      "id": "e",
      "source": "Gate3",
      "target": "Rstop3"

    },
    {
      "id": "e",
      "source": "Camp3",
      "target": "Gate2"

    },
    {
      "id": "e",
      "source": "Camp3",
      "target": "GenG7"

    },
    {
      "id": "e",
      "source": "Camp3",
      "target": "Camp5"

    },
    {
      "id": "e",
      "source": "Camp3",
      "target": "Gate1"

    },
    {
      "id": "e",
      "source": "Camp3",
      "target": "Camp0"

    },
    {
      "id": "e",
      "source": "Camp3",
      "target": "Camp4"

    },
    {
      "id": "e",
      "source": "Camp3",
      "target": "Ent1"

    },
    {
      "id": "e",
      "source": "Ent1",
      "target": "GenG7"

    },
    {
      "id": "e",
      "source": "Ent1",
      "target": "Camp5"

    },
    {
      "id": "e",
      "source": "Ent1",
      "target": "Gate1"

    },
    {
      "id": "e",
      "source": "Ent1",
      "target": "Camp0"

    },
    {
      "id": "e",
      "source": "Ent1",
      "target": "Camp4"

    },
    {
      "id": "e",
      "source": "Ent1",
      "target": "Gate2"

    },
    {
      "id": "e",
      "source": "Ent1",
      "target": "Camp3"

    },
    {
      "id": "e",
      "source": "Camp4",
      "target": "GenG7"

    },
    {
      "id": "e",
      "source": "Camp4",
      "target": "Gate2"

    },
    {
      "id": "e",
      "source": "Camp4",
      "target": "Camp3"

    },
    {
      "id": "e",
      "source": "Camp4",
      "target": "Ent1"

    },
    {
      "id": "e",
      "source": "Camp4",
      "target": "Camp5"

    },
    {
      "id": "e",
      "source": "Camp4",
      "target": "Gate1"

    },
    {
      "id": "e",
      "source": "Camp4",
      "target": "Camp0"

    },
    {
      "id": "e",
      "source": "Ent2",
      "target": "GenG3"

    },
    {
      "id": "e",
      "source": "Ent2",
      "target": "GenG5"

    },
    {
      "id": "e",
      "source": "Ent2",
      "target": "GenG0"

    },
    {
      "id": "e",
      "source": "Ent2",
      "target": "Camp2"

    },
    {
      "id": "e",
      "source": "Ent2",
      "target": "GenG2"

    },
    {
      "id": "e",
      "source": "Ent2",
      "target": "Gate3"

    },
    {
      "id": "e",
      "source": "Ent2",
      "target": "Camp1"

    },
    {
      "id": "e",
      "source": "Ent2",
      "target": "Gate5"

    },
    {
      "id": "e",
      "source": "Ent2",
      "target": "Ent4"

    },
    {
      "id": "e",
      "source": "Ent2",
      "target": "Gate8"

    },
    {
      "id": "e",
      "source": "Ent2",
      "target": "Camp8"

    },
    {
      "id": "e",
      "source": "Ent2",
      "target": "GenG6"

    },
    {
      "id": "e",
      "source": "Ent2",
      "target": "Gate4"

    },
    {
      "id": "e",
      "source": "Ent2",
      "target": "Ent2"

    },
    {
      "id": "e",
      "source": "Camp5",
      "target": "GenG7"

    },
    {
      "id": "e",
      "source": "Camp5",
      "target": "Gate2"

    },
    {
      "id": "e",
      "source": "Camp5",
      "target": "Camp3"

    },
    {
      "id": "e",
      "source": "Camp5",
      "target": "Ent1"

    },
    {
      "id": "e",
      "source": "Camp5",
      "target": "Gate1"

    },
    {
      "id": "e",
      "source": "Camp5",
      "target": "Camp0"

    },
    {
      "id": "e",
      "source": "Camp5",
      "target": "Camp4"

    },
    {
      "id": "e",
      "source": "Rstop4",
      "target": "Camp6"

    },
    {
      "id": "e",
      "source": "Rstop4",
      "target": "GenG7"

    },
    {
      "id": "e",
      "source": "GenG4",
      "target": "Gate0"

    },
    {
      "id": "e",
      "source": "GenG4",
      "target": "GenG1"

    },
    {
      "id": "e",
      "source": "GenG4",
      "target": "Ent0"

    },
    {
      "id": "e",
      "source": "GenG4",
      "target": "GenG4"

    },
    {
      "id": "e",
      "source": "GenG4",
      "target": "Gate6"

    },
    {
      "id": "e",
      "source": "GenG4",
      "target": "Ent3"

    },
    {
      "id": "e",
      "source": "GenG4",
      "target": "Gate7"

    },
    {
      "id": "e",
      "source": "GenG4",
      "target": "GenG7"

    },
    {
      "id": "e",
      "source": "GenG5",
      "target": "Gate5"

    },
    {
      "id": "e",
      "source": "GenG5",
      "target": "Ent4"

    },
    {
      "id": "e",
      "source": "GenG5",
      "target": "Gate8"

    },
    {
      "id": "e",
      "source": "GenG5",
      "target": "Camp8"

    },
    {
      "id": "e",
      "source": "GenG5",
      "target": "GenG6"

    },
    {
      "id": "e",
      "source": "GenG5",
      "target": "Gate4"

    },
    {
      "id": "e",
      "source": "GenG5",
      "target": "GenG5"

    },
    {
      "id": "e",
      "source": "GenG5",
      "target": "GenG3"

    },
    {
      "id": "e",
      "source": "GenG5",
      "target": "Ent2"

    },
    {
      "id": "e",
      "source": "GenG5",
      "target": "Camp2"

    },
    {
      "id": "e",
      "source": "GenG5",
      "target": "Gate3"

    },
    {
      "id": "e",
      "source": "GenG5",
      "target": "GenG0"

    },
    {
      "id": "e",
      "source": "GenG5",
      "target": "GenG2"

    },
    {
      "id": "e",
      "source": "GenG5",
      "target": "Camp1"

    },
    {
      "id": "e",
      "source": "Gate4",
      "target": "Gate5"

    },
    {
      "id": "e",
      "source": "Gate4",
      "target": "Ent4"

    },
    {
      "id": "e",
      "source": "Gate4",
      "target": "Gate8"

    },
    {
      "id": "e",
      "source": "Gate4",
      "target": "Camp8"

    },
    {
      "id": "e",
      "source": "Gate4",
      "target": "GenG6"

    },
    {
      "id": "e",
      "source": "Gate4",
      "target": "GenG5"

    },
    {
      "id": "e",
      "source": "Gate4",
      "target": "Gate4"

    },
    {
      "id": "e",
      "source": "Gate4",
      "target": "GenG3"

    },
    {
      "id": "e",
      "source": "Gate4",
      "target": "Ent2"

    },
    {
      "id": "e",
      "source": "Gate4",
      "target": "Camp2"

    },
    {
      "id": "e",
      "source": "Gate4",
      "target": "Gate3"

    },
    {
      "id": "e",
      "source": "Gate4",
      "target": "GenG0"

    },
    {
      "id": "e",
      "source": "Gate4",
      "target": "GenG2"

    },
    {
      "id": "e",
      "source": "Gate4",
      "target": "Camp1"

    },
    {
      "id": "e",
      "source": "Gate4",
      "target": "Rstop5"

    },
    {
      "id": "e",
      "source": "Rstop5",
      "target": "Gate4"

    },
    {
      "id": "e",
      "source": "Camp6",
      "target": "Rstop4"

    },
    {
      "id": "e",
      "source": "Camp6",
      "target": "GenG7"

    },
    {
      "id": "e",
      "source": "GenG6",
      "target": "Camp7"

    },
    {
      "id": "e",
      "source": "GenG6",
      "target": "Gate5"

    },
    {
      "id": "e",
      "source": "GenG6",
      "target": "Ent4"

    },
    {
      "id": "e",
      "source": "GenG6",
      "target": "Gate8"

    },
    {
      "id": "e",
      "source": "GenG6",
      "target": "Camp8"

    },
    {
      "id": "e",
      "source": "GenG6",
      "target": "GenG6"

    },
    {
      "id": "e",
      "source": "GenG6",
      "target": "GenG5"

    },
    {
      "id": "e",
      "source": "GenG6",
      "target": "Ent2"

    },
    {
      "id": "e",
      "source": "GenG6",
      "target": "Gate4"

    },
    {
      "id": "e",
      "source": "GenG6",
      "target": "GenG3"

    },
    {
      "id": "e",
      "source": "GenG6",
      "target": "GenG0"

    },
    {
      "id": "e",
      "source": "GenG6",
      "target": "Camp2"

    },
    {
      "id": "e",
      "source": "GenG6",
      "target": "GenG2"

    },
    {
      "id": "e",
      "source": "GenG6",
      "target": "Gate3"

    },
    {
      "id": "e",
      "source": "GenG6",
      "target": "Camp1"

    },
    {
      "id": "e",
      "source": "GenG7",
      "target": "Camp6"

    },
    {
      "id": "e",
      "source": "GenG7",
      "target": "Rstop4"

    },
    {
      "id": "e",
      "source": "GenG7",
      "target": "GenG4"

    },
    {
      "id": "e",
      "source": "GenG7",
      "target": "Gate0"

    },
    {
      "id": "e",
      "source": "GenG7",
      "target": "GenG1"

    },
    {
      "id": "e",
      "source": "GenG7",
      "target": "Ent0"

    },
    {
      "id": "e",
      "source": "GenG7",
      "target": "Gate6"

    },
    {
      "id": "e",
      "source": "GenG7",
      "target": "Ent3"

    },
    {
      "id": "e",
      "source": "GenG7",
      "target": "Gate7"

    },
    {
      "id": "e",
      "source": "GenG7",
      "target": "Gate2"

    },
    {
      "id": "e",
      "source": "GenG7",
      "target": "Camp3"

    },
    {
      "id": "e",
      "source": "GenG7",
      "target": "Ent1"

    },
    {
      "id": "e",
      "source": "GenG7",
      "target": "Camp5"

    },
    {
      "id": "e",
      "source": "GenG7",
      "target": "Gate1"

    },
    {
      "id": "e",
      "source": "GenG7",
      "target": "Camp0"

    },
    {
      "id": "e",
      "source": "GenG7",
      "target": "Camp4"

    },
    {
      "id": "e",
      "source": "Camp7",
      "target": "Camp7"

    },
    {
      "id": "e",
      "source": "Camp7",
      "target": "GenG6"

    },
    {
      "id": "e",
      "source": "Gate5",
      "target": "Ent4"

    },
    {
      "id": "e",
      "source": "Gate5",
      "target": "Gate8"

    },
    {
      "id": "e",
      "source": "Gate5",
      "target": "Camp8"

    },
    {
      "id": "e",
      "source": "Gate5",
      "target": "GenG6"

    },
    {
      "id": "e",
      "source": "Gate5",
      "target": "Gate5"

    },
    {
      "id": "e",
      "source": "Gate5",
      "target": "GenG5"

    },
    {
      "id": "e",
      "source": "Gate5",
      "target": "Ent2"

    },
    {
      "id": "e",
      "source": "Gate5",
      "target": "Gate4"

    },
    {
      "id": "e",
      "source": "Gate5",
      "target": "GenG3"

    },
    {
      "id": "e",
      "source": "Gate5",
      "target": "GenG0"

    },
    {
      "id": "e",
      "source": "Gate5",
      "target": "Camp2"

    },
    {
      "id": "e",
      "source": "Gate5",
      "target": "GenG2"

    },
    {
      "id": "e",
      "source": "Gate5",
      "target": "Gate3"

    },
    {
      "id": "e",
      "source": "Gate5",
      "target": "Camp1"

    },
    {
      "id": "e",
      "source": "Gate5",
      "target": "Rstop6"

    },
    {
      "id": "e",
      "source": "Rstop6",
      "target": "Gate6"

    },
    {
      "id": "e",
      "source": "Rstop6",
      "target": "Gate5"

    },
    {
      "id": "e",
      "source": "Gate6",
      "target": "Rstop6"

    },
    {
      "id": "e",
      "source": "Gate6",
      "target": "Ent3"

    },
    {
      "id": "e",
      "source": "Gate6",
      "target": "Gate0"

    },
    {
      "id": "e",
      "source": "Gate6",
      "target": "GenG1"

    },
    {
      "id": "e",
      "source": "Gate6",
      "target": "Ent0"

    },
    {
      "id": "e",
      "source": "Gate6",
      "target": "GenG4"

    },
    {
      "id": "e",
      "source": "Gate6",
      "target": "Gate7"

    },
    {
      "id": "e",
      "source": "Gate6",
      "target": "GenG7"

    },
    {
      "id": "e",
      "source": "Rstop7",
      "target": "Gate7"

    },
    {
      "id": "e",
      "source": "Gate7",
      "target": "Rstop7"

    },
    {
      "id": "e",
      "source": "Gate7",
      "target": "GenG4"

    },
    {
      "id": "e",
      "source": "Gate7",
      "target": "Gate0"

    },
    {
      "id": "e",
      "source": "Gate7",
      "target": "GenG1"

    },
    {
      "id": "e",
      "source": "Gate7",
      "target": "Ent0"

    },
    {
      "id": "e",
      "source": "Gate7",
      "target": "Gate6"

    },
    {
      "id": "e",
      "source": "Gate7",
      "target": "Ent3"

    },
    {
      "id": "e",
      "source": "Gate7",
      "target": "GenG7"

    },
    {
      "id": "e",
      "source": "Ent3",
      "target": "Gate6"

    },
    {
      "id": "e",
      "source": "Ent3",
      "target": "Gate0"

    },
    {
      "id": "e",
      "source": "Ent3",
      "target": "GenG1"

    },
    {
      "id": "e",
      "source": "Ent3",
      "target": "Ent0"

    },
    {
      "id": "e",
      "source": "Ent3",
      "target": "GenG4"

    },
    {
      "id": "e",
      "source": "Ent3",
      "target": "Gate7"

    },
    {
      "id": "e",
      "source": "Ent3",
      "target": "GenG7"

    },
    {
      "id": "e",
      "source": "Rbase",
      "target": "Gate8"

    },
    {
      "id": "e",
      "source": "Camp8",
      "target": "Ent4"

    },
    {
      "id": "e",
      "source": "Camp8",
      "target": "Gate8"

    },
    {
      "id": "e",
      "source": "Camp8",
      "target": "Gate5"

    },
    {
      "id": "e",
      "source": "Camp8",
      "target": "GenG6"

    },
    {
      "id": "e",
      "source": "Camp8",
      "target": "Camp8"

    },
    {
      "id": "e",
      "source": "Camp8",
      "target": "GenG5"

    },
    {
      "id": "e",
      "source": "Camp8",
      "target": "Gate4"

    },
    {
      "id": "e",
      "source": "Camp8",
      "target": "GenG3"

    },
    {
      "id": "e",
      "source": "Camp8",
      "target": "Ent2"

    },
    {
      "id": "e",
      "source": "Camp8",
      "target": "Camp2"

    },
    {
      "id": "e",
      "source": "Camp8",
      "target": "Gate3"

    },
    {
      "id": "e",
      "source": "Camp8",
      "target": "GenG0"

    },
    {
      "id": "e",
      "source": "Camp8",
      "target": "GenG2"

    },
    {
      "id": "e",
      "source": "Camp8",
      "target": "Camp1"

    },
    {
      "id": "e",
      "source": "Gate8",
      "target": "Ent4"

    },
    {
      "id": "e",
      "source": "Gate8",
      "target": "Gate5"

    },
    {
      "id": "e",
      "source": "Gate8",
      "target": "GenG6"

    },
    {
      "id": "e",
      "source": "Gate8",
      "target": "Gate8"

    },
    {
      "id": "e",
      "source": "Gate8",
      "target": "Camp8"

    },
    {
      "id": "e",
      "source": "Gate8",
      "target": "GenG5"

    },
    {
      "id": "e",
      "source": "Gate8",
      "target": "Gate4"

    },
    {
      "id": "e",
      "source": "Gate8",
      "target": "GenG3"

    },
    {
      "id": "e",
      "source": "Gate8",
      "target": "Ent2"

    },
    {
      "id": "e",
      "source": "Gate8",
      "target": "Camp2"

    },
    {
      "id": "e",
      "source": "Gate8",
      "target": "Gate3"

    },
    {
      "id": "e",
      "source": "Gate8",
      "target": "GenG0"

    },
    {
      "id": "e",
      "source": "Gate8",
      "target": "GenG2"

    },
    {
      "id": "e",
      "source": "Gate8",
      "target": "Camp1"

    },
    {
      "id": "e",
      "source": "Gate8",
      "target": "Rbase"

    },
    {
      "id": "e",
      "source": "Ent4",
      "target": "Gate5"

    },
    {
      "id": "e",
      "source": "Ent4",
      "target": "GenG6"

    },
    {
      "id": "e",
      "source": "Ent4",
      "target": "Ent4"

    },
    {
      "id": "e",
      "source": "Ent4",
      "target": "Gate8"

    },
    {
      "id": "e",
      "source": "Ent4",
      "target": "Camp8"

    },
    {
      "id": "e",
      "source": "Ent4",
      "target": "GenG5"

    },
    {
      "id": "e",
      "source": "Ent4",
      "target": "Gate4"

    },
    {
      "id": "e",
      "source": "Ent4",
      "target": "GenG3"

    },
    {
      "id": "e",
      "source": "Ent4",
      "target": "Ent2"

    },
    {
      "id": "e",
      "source": "Ent4",
      "target": "Camp2"

    },
    {
      "id": "e",
      "source": "Ent4",
      "target": "Gate3"

    },
    {
      "id": "e",
      "source": "Ent4",
      "target": "GenG0"

    },
    {
      "id": "e",
      "source": "Ent4",
      "target": "GenG2"

    },
    {
      "id": "e",
      "source": "Ent4",
      "target": "Camp1"

    }
  ]
}